<?xml version="1.0" standalone="no"?>
<!DOCTYPE svg PUBLIC "-//W3C//DTD SVG 20010904//EN"
 "http://www.w3.org/TR/2001/REC-SVG-20010904/DTD/svg10.dtd">
<svg version="1.0" xmlns="http://www.w3.org/2000/svg"
 width="260.000000pt" height="260.000000pt" viewBox="0 0 260.000000 260.000000"
 preserveAspectRatio="xMidYMid meet">
<metadata>
Created by potrace 1.11, written by Peter Selinger 2001-2013
</metadata>
<g transform="translate(0.000000,260.000000) scale(0.100000,-0.100000)"
fill="#000000" stroke="none">
<path d="M260 1285 l0 -1025 435 0 435 0 2 343 3 342 140 3 c77 1 150 0 163
-3 l22 -5 0 -330 c0 -263 3 -330 13 -330 16 0 73 68 119 141 57 91 73 143 73
244 0 82 -4 97 -35 165 -59 127 -131 216 -400 494 -161 167 -148 152 -202 222
-106 137 -152 260 -146 387 3 68 10 94 39 157 20 41 59 105 87 142 29 37 52
70 52 73 0 3 -180 5 -400 5 l-400 0 0 -1025z"/>
<path d="M1458 1968 l-3 -343 -154 -3 c-117 -2 -156 1 -163 10 -4 7 -8 158 -8
336 0 177 -4 322 -8 322 -21 0 -119 -129 -154 -200 -49 -103 -59 -182 -33
-279 33 -128 103 -223 375 -511 237 -251 325 -364 370 -475 21 -50 25 -77 25
-160 0 -111 -11 -157 -55 -230 -47 -78 -53 -87 -82 -120 -16 -16 -28 -36 -28
-42 0 -10 88 -13 405 -13 l405 0 0 1025 0 1025 -445 0 -445 0 -2 -342z"/>
</g>
</svg>
